%YAML 1.1
%TAG !u! tag:unity3d.com,2011:
--- !u!29 &1
OcclusionCullingSettings:
  m_ObjectHideFlags: 0
  serializedVersion: 2
  m_OcclusionBakeSettings:
    smallestOccluder: 5
    smallestHole: 0.25
    backfaceThreshold: 100
  m_SceneGUID: 00000000000000000000000000000000
  m_OcclusionCullingData: {fileID: 0}
--- !u!104 &2
RenderSettings:
  m_ObjectHideFlags: 0
  serializedVersion: 9
  m_Fog: 0
  m_FogColor: {r: 0.5, g: 0.5, b: 0.5, a: 1}
  m_FogMode: 3
  m_FogDensity: 0.01
  m_LinearFogStart: 0
  m_LinearFogEnd: 300
  m_AmbientSkyColor: {r: 0.212, g: 0.227, b: 0.259, a: 1}
  m_AmbientEquatorColor: {r: 0.114, g: 0.125, b: 0.133, a: 1}
  m_AmbientGroundColor: {r: 0.047, g: 0.043, b: 0.035, a: 1}
  m_AmbientIntensity: 1
  m_AmbientMode: 3
  m_SubtractiveShadowColor: {r: 0.42, g: 0.478, b: 0.627, a: 1}
  m_SkyboxMaterial: {fileID: 0}
  m_HaloStrength: 0.5
  m_FlareStrength: 1
  m_FlareFadeSpeed: 3
  m_HaloTexture: {fileID: 0}
  m_SpotCookie: {fileID: 10001, guid: 0000000000000000e000000000000000, type: 0}
  m_DefaultReflectionMode: 0
  m_DefaultReflectionResolution: 128
  m_ReflectionBounces: 1
  m_ReflectionIntensity: 1
  m_CustomReflection: {fileID: 0}
  m_Sun: {fileID: 0}
  m_IndirectSpecularColor: {r: 0, g: 0, b: 0, a: 1}
  m_UseRadianceAmbientProbe: 0
--- !u!157 &3
LightmapSettings:
  m_ObjectHideFlags: 0
  serializedVersion: 11
  m_GIWorkflowMode: 1
  m_GISettings:
    serializedVersion: 2
    m_BounceScale: 1
    m_IndirectOutputScale: 1
    m_AlbedoBoost: 1
    m_EnvironmentLightingMode: 0
    m_EnableBakedLightmaps: 0
    m_EnableRealtimeLightmaps: 0
  m_LightmapEditorSettings:
    serializedVersion: 10
    m_Resolution: 2
    m_BakeResolution: 40
    m_AtlasSize: 1024
    m_AO: 0
    m_AOMaxDistance: 1
    m_CompAOExponent: 1
    m_CompAOExponentDirect: 0
    m_Padding: 2
    m_LightmapParameters: {fileID: 0}
    m_LightmapsBakeMode: 1
    m_TextureCompression: 1
    m_FinalGather: 0
    m_FinalGatherFiltering: 1
    m_FinalGatherRayCount: 256
    m_ReflectionCompression: 2
    m_MixedBakeMode: 2
    m_BakeBackend: 0
    m_PVRSampling: 1
    m_PVRDirectSampleCount: 32
    m_PVRSampleCount: 500
    m_PVRBounces: 2
    m_PVRFilterTypeDirect: 0
    m_PVRFilterTypeIndirect: 0
    m_PVRFilterTypeAO: 0
    m_PVRFilteringMode: 2
    m_PVRCulling: 1
    m_PVRFilteringGaussRadiusDirect: 1
    m_PVRFilteringGaussRadiusIndirect: 5
    m_PVRFilteringGaussRadiusAO: 2
    m_PVRFilteringAtrousPositionSigmaDirect: 0.5
    m_PVRFilteringAtrousPositionSigmaIndirect: 2
    m_PVRFilteringAtrousPositionSigmaAO: 1
    m_ShowResolutionOverlay: 1
  m_LightingDataAsset: {fileID: 0}
  m_UseShadowmask: 1
--- !u!196 &4
NavMeshSettings:
  serializedVersion: 2
  m_ObjectHideFlags: 0
  m_BuildSettings:
    serializedVersion: 2
    agentTypeID: 0
    agentRadius: 0.5
    agentHeight: 2
    agentSlope: 45
    agentClimb: 0.4
    ledgeDropHeight: 0
    maxJumpAcrossDistance: 0
    minRegionArea: 2
    manualCellSize: 0
    cellSize: 0.16666667
    manualTileSize: 0
    tileSize: 256
    accuratePlacement: 0
    debug:
      m_Flags: 0
  m_NavMeshData: {fileID: 23800000, guid: 0bc607fa2e315482ebe98797e844e11f, type: 2}
--- !u!1 &18936438
GameObject:
  m_ObjectHideFlags: 0
  m_CorrespondingSourceObject: {fileID: 0}
  m_PrefabInstance: {fileID: 0}
  m_PrefabAsset: {fileID: 0}
  serializedVersion: 6
  m_Component:
  - component: {fileID: 18936439}
  - component: {fileID: 18936440}
  m_Layer: 0
  m_Name: Spawn (5)
  m_TagString: Untagged
  m_Icon: {fileID: 5721338939258241955, guid: 0000000000000000d000000000000000, type: 0}
  m_NavMeshLayer: 0
  m_StaticEditorFlags: 0
  m_IsActive: 1
--- !u!4 &18936439
Transform:
  m_ObjectHideFlags: 0
  m_CorrespondingSourceObject: {fileID: 0}
  m_PrefabInstance: {fileID: 0}
  m_PrefabAsset: {fileID: 0}
  m_GameObject: {fileID: 18936438}
  m_LocalRotation: {x: 0, y: 0.7071068, z: -0, w: -0.7071068}
  m_LocalPosition: {x: 200.6, y: -2.5, z: -78}
  m_LocalScale: {x: 1, y: 1, z: 1}
  m_Children: []
  m_Father: {fileID: 1976302605}
  m_RootOrder: 5
  m_LocalEulerAnglesHint: {x: 0, y: 270, z: 0}
--- !u!114 &18936440
MonoBehaviour:
  m_ObjectHideFlags: 0
  m_CorrespondingSourceObject: {fileID: 0}
  m_PrefabInstance: {fileID: 0}
  m_PrefabAsset: {fileID: 0}
  m_GameObject: {fileID: 18936438}
  m_Enabled: 1
  m_EditorHideFlags: 0
  m_Script: {fileID: 11500000, guid: 41f84591ce72545258ea98cb7518d8b9, type: 3}
  m_Name: 
  m_EditorClassIdentifier: 
--- !u!1 &425298696
GameObject:
  m_ObjectHideFlags: 0
  m_CorrespondingSourceObject: {fileID: 0}
  m_PrefabInstance: {fileID: 0}
  m_PrefabAsset: {fileID: 0}
  serializedVersion: 6
  m_Component:
  - component: {fileID: 425298698}
  - component: {fileID: 425298697}
  m_Layer: 0
  m_Name: GameManager
  m_TagString: Untagged
  m_Icon: {fileID: 0}
  m_NavMeshLayer: 0
  m_StaticEditorFlags: 0
  m_IsActive: 1
--- !u!114 &425298697
MonoBehaviour:
  m_ObjectHideFlags: 0
  m_CorrespondingSourceObject: {fileID: 0}
  m_PrefabInstance: {fileID: 0}
  m_PrefabAsset: {fileID: 0}
  m_GameObject: {fileID: 425298696}
  m_Enabled: 1
  m_EditorHideFlags: 0
  m_Script: {fileID: 11500000, guid: da8bc09bf4dc5492ea6faa7f1288a43b, type: 3}
  m_Name: 
  m_EditorClassIdentifier: 
  localTank: {fileID: 0}
  BoostButton: {fileID: 0}
  ShootButton: {fileID: 0}
  IsGameInputEnabled: 1
  RedTeamScore: 0
  BlueTeamScore: 0
--- !u!4 &425298698
Transform:
  m_ObjectHideFlags: 0
  m_CorrespondingSourceObject: {fileID: 0}
  m_PrefabInstance: {fileID: 0}
  m_PrefabAsset: {fileID: 0}
  m_GameObject: {fileID: 425298696}
  m_LocalRotation: {x: 0, y: 0, z: 0, w: 1}
  m_LocalPosition: {x: 440.5, y: 352.5, z: 0}
  m_LocalScale: {x: 1, y: 1, z: 1}
  m_Children: []
  m_Father: {fileID: 0}
  m_RootOrder: 4
  m_LocalEulerAnglesHint: {x: 0, y: 0, z: 0}
--- !u!1 &465402401
GameObject:
  m_ObjectHideFlags: 0
  m_CorrespondingSourceObject: {fileID: 0}
  m_PrefabInstance: {fileID: 0}
  m_PrefabAsset: {fileID: 0}
  serializedVersion: 6
  m_Component:
  - component: {fileID: 465402402}
  - component: {fileID: 465402403}
  m_Layer: 0
  m_Name: Spawn (1)
  m_TagString: Untagged
  m_Icon: {fileID: 5721338939258241955, guid: 0000000000000000d000000000000000, type: 0}
  m_NavMeshLayer: 0
  m_StaticEditorFlags: 0
  m_IsActive: 1
--- !u!4 &465402402
Transform:
  m_ObjectHideFlags: 0
  m_CorrespondingSourceObject: {fileID: 0}
  m_PrefabInstance: {fileID: 0}
  m_PrefabAsset: {fileID: 0}
  m_GameObject: {fileID: 465402401}
  m_LocalRotation: {x: 0, y: 1, z: 0, w: 0}
  m_LocalPosition: {x: 74.24, y: -2.5, z: 208.21}
  m_LocalScale: {x: 1, y: 1, z: 1}
  m_Children: []
  m_Father: {fileID: 1976302605}
  m_RootOrder: 1
  m_LocalEulerAnglesHint: {x: 0, y: 180, z: 0}
--- !u!114 &465402403
MonoBehaviour:
  m_ObjectHideFlags: 0
  m_CorrespondingSourceObject: {fileID: 0}
  m_PrefabInstance: {fileID: 0}
  m_PrefabAsset: {fileID: 0}
  m_GameObject: {fileID: 465402401}
  m_Enabled: 1
  m_EditorHideFlags: 0
  m_Script: {fileID: 11500000, guid: 41f84591ce72545258ea98cb7518d8b9, type: 3}
  m_Name: 
  m_EditorClassIdentifier: 
--- !u!1 &477850017
GameObject:
  m_ObjectHideFlags: 0
  m_CorrespondingSourceObject: {fileID: 0}
  m_PrefabInstance: {fileID: 0}
  m_PrefabAsset: {fileID: 0}
  serializedVersion: 6
  m_Component:
  - component: {fileID: 477850019}
  - component: {fileID: 477850020}
  - component: {fileID: 477850018}
  m_Layer: 0
  m_Name: TeamManager
  m_TagString: Untagged
  m_Icon: {fileID: 0}
  m_NavMeshLayer: 0
  m_StaticEditorFlags: 0
  m_IsActive: 1
--- !u!114 &477850018
MonoBehaviour:
  m_ObjectHideFlags: 0
  m_CorrespondingSourceObject: {fileID: 0}
  m_PrefabInstance: {fileID: 0}
  m_PrefabAsset: {fileID: 0}
  m_GameObject: {fileID: 477850017}
  m_Enabled: 1
  m_EditorHideFlags: 0
  m_Script: {fileID: 11500000, guid: 94e9744bc706bf5418297f49d6bf949d, type: 3}
  m_Name: 
  m_EditorClassIdentifier: 
  syncInterval: 0.1
--- !u!4 &477850019
Transform:
  m_ObjectHideFlags: 0
  m_CorrespondingSourceObject: {fileID: 0}
  m_PrefabInstance: {fileID: 0}
  m_PrefabAsset: {fileID: 0}
  m_GameObject: {fileID: 477850017}
  m_LocalRotation: {x: 0, y: 0, z: 0, w: 1}
  m_LocalPosition: {x: 315.81082, y: 284.87952, z: -73.625}
  m_LocalScale: {x: 1, y: 1, z: 1}
  m_Children: []
  m_Father: {fileID: 0}
  m_RootOrder: 5
  m_LocalEulerAnglesHint: {x: 0, y: 0, z: 0}
--- !u!114 &477850020
MonoBehaviour:
  m_ObjectHideFlags: 0
  m_CorrespondingSourceObject: {fileID: 0}
  m_PrefabInstance: {fileID: 0}
  m_PrefabAsset: {fileID: 0}
  m_GameObject: {fileID: 477850017}
  m_Enabled: 1
  m_EditorHideFlags: 0
  m_Script: {fileID: 11500000, guid: 9b91ecbcc199f4492b9a91e820070131, type: 3}
  m_Name: 
  m_EditorClassIdentifier: 
  serverOnly: 0
  localPlayerAuthority: 1
  m_AssetId: 
  m_SceneId: 715714030
--- !u!1 &526926304
GameObject:
  m_ObjectHideFlags: 0
  m_CorrespondingSourceObject: {fileID: 0}
  m_PrefabInstance: {fileID: 0}
  m_PrefabAsset: {fileID: 0}
  serializedVersion: 6
  m_Component:
  - component: {fileID: 526926305}
  - component: {fileID: 526926306}
  m_Layer: 0
  m_Name: Spawn (6)
  m_TagString: Untagged
  m_Icon: {fileID: 5721338939258241955, guid: 0000000000000000d000000000000000, type: 0}
  m_NavMeshLayer: 0
  m_StaticEditorFlags: 0
  m_IsActive: 1
--- !u!4 &526926305
Transform:
  m_ObjectHideFlags: 0
  m_CorrespondingSourceObject: {fileID: 0}
  m_PrefabInstance: {fileID: 0}
  m_PrefabAsset: {fileID: 0}
  m_GameObject: {fileID: 526926304}
  m_LocalRotation: {x: 0, y: 0, z: 0, w: 1}
  m_LocalPosition: {x: 12.1, y: -2.5, z: -201.1}
  m_LocalScale: {x: 1, y: 1, z: 1}
  m_Children: []
  m_Father: {fileID: 1976302605}
  m_RootOrder: 6
  m_LocalEulerAnglesHint: {x: 0, y: 0, z: 0}
--- !u!114 &526926306
MonoBehaviour:
  m_ObjectHideFlags: 0
  m_CorrespondingSourceObject: {fileID: 0}
  m_PrefabInstance: {fileID: 0}
  m_PrefabAsset: {fileID: 0}
  m_GameObject: {fileID: 526926304}
  m_Enabled: 1
  m_EditorHideFlags: 0
  m_Script: {fileID: 11500000, guid: 41f84591ce72545258ea98cb7518d8b9, type: 3}
  m_Name: 
  m_EditorClassIdentifier: 
--- !u!1001 &551475336
PrefabInstance:
  m_ObjectHideFlags: 0
  serializedVersion: 2
  m_Modification:
    m_TransformParent: {fileID: 0}
    m_Modifications:
    - target: {fileID: 171356, guid: 1cd1bdb2203012a40ab12a0d2fd7aa88, type: 3}
      propertyPath: m_Name
      value: LevelArt
      objectReference: {fileID: 0}
    - target: {fileID: 488946, guid: 1cd1bdb2203012a40ab12a0d2fd7aa88, type: 3}
      propertyPath: m_LocalPosition.x
      value: 0
      objectReference: {fileID: 0}
    - target: {fileID: 488946, guid: 1cd1bdb2203012a40ab12a0d2fd7aa88, type: 3}
      propertyPath: m_LocalPosition.y
      value: 0
      objectReference: {fileID: 0}
    - target: {fileID: 488946, guid: 1cd1bdb2203012a40ab12a0d2fd7aa88, type: 3}
      propertyPath: m_LocalPosition.z
      value: 0
      objectReference: {fileID: 0}
    - target: {fileID: 488946, guid: 1cd1bdb2203012a40ab12a0d2fd7aa88, type: 3}
      propertyPath: m_LocalRotation.x
      value: 0
      objectReference: {fileID: 0}
    - target: {fileID: 488946, guid: 1cd1bdb2203012a40ab12a0d2fd7aa88, type: 3}
      propertyPath: m_LocalRotation.y
      value: 0
      objectReference: {fileID: 0}
    - target: {fileID: 488946, guid: 1cd1bdb2203012a40ab12a0d2fd7aa88, type: 3}
      propertyPath: m_LocalRotation.z
      value: 0
      objectReference: {fileID: 0}
    - target: {fileID: 488946, guid: 1cd1bdb2203012a40ab12a0d2fd7aa88, type: 3}
      propertyPath: m_LocalRotation.w
      value: 1
      objectReference: {fileID: 0}
    - target: {fileID: 488946, guid: 1cd1bdb2203012a40ab12a0d2fd7aa88, type: 3}
      propertyPath: m_RootOrder
      value: 0
      objectReference: {fileID: 0}
    - target: {fileID: 488946, guid: 1cd1bdb2203012a40ab12a0d2fd7aa88, type: 3}
      propertyPath: m_LocalEulerAnglesHint.x
      value: 0
      objectReference: {fileID: 0}
    - target: {fileID: 488946, guid: 1cd1bdb2203012a40ab12a0d2fd7aa88, type: 3}
      propertyPath: m_LocalEulerAnglesHint.y
      value: 0
      objectReference: {fileID: 0}
    - target: {fileID: 488946, guid: 1cd1bdb2203012a40ab12a0d2fd7aa88, type: 3}
      propertyPath: m_LocalEulerAnglesHint.z
      value: 0
      objectReference: {fileID: 0}
    - target: {fileID: 488946, guid: 1cd1bdb2203012a40ab12a0d2fd7aa88, type: 3}
      propertyPath: m_LocalScale.x
      value: 1
      objectReference: {fileID: 0}
    - target: {fileID: 488946, guid: 1cd1bdb2203012a40ab12a0d2fd7aa88, type: 3}
      propertyPath: m_LocalScale.y
      value: 1
      objectReference: {fileID: 0}
    - target: {fileID: 488946, guid: 1cd1bdb2203012a40ab12a0d2fd7aa88, type: 3}
      propertyPath: m_LocalScale.z
      value: 1
      objectReference: {fileID: 0}
    - target: {fileID: 2393758, guid: 1cd1bdb2203012a40ab12a0d2fd7aa88, type: 3}
      propertyPath: m_Enabled
      value: 1
      objectReference: {fileID: 0}
    - target: {fileID: 6476316, guid: 1cd1bdb2203012a40ab12a0d2fd7aa88, type: 3}
      propertyPath: m_Enabled
      value: 1
      objectReference: {fileID: 0}
    m_RemovedComponents: []
  m_SourcePrefab: {fileID: 100100000, guid: 1cd1bdb2203012a40ab12a0d2fd7aa88, type: 3}
--- !u!1001 &765415839
PrefabInstance:
  m_ObjectHideFlags: 0
  serializedVersion: 2
  m_Modification:
    m_TransformParent: {fileID: 0}
    m_Modifications:
    - target: {fileID: 1176804143429260, guid: 310c264d0f26b4dc9b3c5d845b7caf39, type: 3}
      propertyPath: m_Name
      value: 3rdPersonCam
      objectReference: {fileID: 0}
    - target: {fileID: 1176804143429260, guid: 310c264d0f26b4dc9b3c5d845b7caf39, type: 3}
      propertyPath: m_IsActive
      value: 0
      objectReference: {fileID: 0}
    - target: {fileID: 4942823760454538, guid: 310c264d0f26b4dc9b3c5d845b7caf39, type: 3}
      propertyPath: m_LocalPosition.x
      value: -2
      objectReference: {fileID: 0}
    - target: {fileID: 4942823760454538, guid: 310c264d0f26b4dc9b3c5d845b7caf39, type: 3}
      propertyPath: m_LocalPosition.y
      value: 6.82
      objectReference: {fileID: 0}
    - target: {fileID: 4942823760454538, guid: 310c264d0f26b4dc9b3c5d845b7caf39, type: 3}
      propertyPath: m_LocalPosition.z
      value: -21.7
      objectReference: {fileID: 0}
    - target: {fileID: 4942823760454538, guid: 310c264d0f26b4dc9b3c5d845b7caf39, type: 3}
      propertyPath: m_LocalRotation.x
      value: 0.13113752
      objectReference: {fileID: 0}
    - target: {fileID: 4942823760454538, guid: 310c264d0f26b4dc9b3c5d845b7caf39, type: 3}
      propertyPath: m_LocalRotation.y
      value: 0.07777737
      objectReference: {fileID: 0}
    - target: {fileID: 4942823760454538, guid: 310c264d0f26b4dc9b3c5d845b7caf39, type: 3}
      propertyPath: m_LocalRotation.z
      value: 0.010320751
      objectReference: {fileID: 0}
    - target: {fileID: 4942823760454538, guid: 310c264d0f26b4dc9b3c5d845b7caf39, type: 3}
      propertyPath: m_LocalRotation.w
      value: 0.98825455
      objectReference: {fileID: 0}
    - target: {fileID: 4942823760454538, guid: 310c264d0f26b4dc9b3c5d845b7caf39, type: 3}
      propertyPath: m_RootOrder
      value: 2
      objectReference: {fileID: 0}
    - target: {fileID: 4942823760454538, guid: 310c264d0f26b4dc9b3c5d845b7caf39, type: 3}
      propertyPath: m_LocalEulerAnglesHint.x
      value: 14.927001
      objectReference: {fileID: 0}
    - target: {fileID: 4942823760454538, guid: 310c264d0f26b4dc9b3c5d845b7caf39, type: 3}
      propertyPath: m_LocalEulerAnglesHint.y
      value: 9.317
      objectReference: {fileID: 0}
    - target: {fileID: 4942823760454538, guid: 310c264d0f26b4dc9b3c5d845b7caf39, type: 3}
      propertyPath: m_LocalEulerAnglesHint.z
      value: 2.42
      objectReference: {fileID: 0}
    - target: {fileID: 114321653852685846, guid: 310c264d0f26b4dc9b3c5d845b7caf39,
        type: 3}
      propertyPath: distance
      value: 5
      objectReference: {fileID: 0}
    - target: {fileID: 114321653852685846, guid: 310c264d0f26b4dc9b3c5d845b7caf39,
        type: 3}
      propertyPath: height
      value: 3.4
      objectReference: {fileID: 0}
    - target: {fileID: 114321653852685846, guid: 310c264d0f26b4dc9b3c5d845b7caf39,
        type: 3}
      propertyPath: yOffset
      value: 1.75
      objectReference: {fileID: 0}
    - target: {fileID: 114321653852685846, guid: 310c264d0f26b4dc9b3c5d845b7caf39,
        type: 3}
      propertyPath: target
      value: 
      objectReference: {fileID: 0}
    m_RemovedComponents: []
  m_SourcePrefab: {fileID: 100100000, guid: 310c264d0f26b4dc9b3c5d845b7caf39, type: 3}
--- !u!1 &765415840 stripped
GameObject:
  m_CorrespondingSourceObject: {fileID: 1176804143429260, guid: 310c264d0f26b4dc9b3c5d845b7caf39,
    type: 3}
  m_PrefabInstance: {fileID: 765415839}
  m_PrefabAsset: {fileID: 0}
--- !u!81 &765415841
AudioListener:
  m_ObjectHideFlags: 0
  m_CorrespondingSourceObject: {fileID: 0}
  m_PrefabInstance: {fileID: 0}
  m_PrefabAsset: {fileID: 0}
  m_GameObject: {fileID: 765415840}
  m_Enabled: 1
--- !u!1 &848333021
GameObject:
  m_ObjectHideFlags: 0
  m_CorrespondingSourceObject: {fileID: 0}
  m_PrefabInstance: {fileID: 0}
  m_PrefabAsset: {fileID: 0}
  serializedVersion: 6
  m_Component:
  - component: {fileID: 848333022}
  - component: {fileID: 848333023}
  m_Layer: 0
  m_Name: Spawn (2)
  m_TagString: Untagged
  m_Icon: {fileID: 5721338939258241955, guid: 0000000000000000d000000000000000, type: 0}
  m_NavMeshLayer: 0
  m_StaticEditorFlags: 0
  m_IsActive: 1
--- !u!4 &848333022
Transform:
  m_ObjectHideFlags: 0
  m_CorrespondingSourceObject: {fileID: 0}
  m_PrefabInstance: {fileID: 0}
  m_PrefabAsset: {fileID: 0}
  m_GameObject: {fileID: 848333021}
  m_LocalRotation: {x: -0, y: 0.9772858, z: -0, w: -0.21192563}
  m_LocalPosition: {x: 200.6, y: -2.5, z: 208.21}
  m_LocalScale: {x: 1, y: 1, z: 1}
  m_Children: []
  m_Father: {fileID: 1976302605}
  m_RootOrder: 2
  m_LocalEulerAnglesHint: {x: 0, y: 204.46999, z: 0}
--- !u!114 &848333023
MonoBehaviour:
  m_ObjectHideFlags: 0
  m_CorrespondingSourceObject: {fileID: 0}
  m_PrefabInstance: {fileID: 0}
  m_PrefabAsset: {fileID: 0}
  m_GameObject: {fileID: 848333021}
  m_Enabled: 1
  m_EditorHideFlags: 0
  m_Script: {fileID: 11500000, guid: 41f84591ce72545258ea98cb7518d8b9, type: 3}
  m_Name: 
  m_EditorClassIdentifier: 
--- !u!1 &1048729742
GameObject:
  m_ObjectHideFlags: 0
  m_CorrespondingSourceObject: {fileID: 0}
  m_PrefabInstance: {fileID: 0}
  m_PrefabAsset: {fileID: 0}
  serializedVersion: 6
  m_Component:
  - component: {fileID: 1048729743}
  - component: {fileID: 1048729744}
  m_Layer: 0
  m_Name: Spawn (3)
  m_TagString: Untagged
  m_Icon: {fileID: 5721338939258241955, guid: 0000000000000000d000000000000000, type: 0}
  m_NavMeshLayer: 0
  m_StaticEditorFlags: 0
  m_IsActive: 1
--- !u!4 &1048729743
Transform:
  m_ObjectHideFlags: 0
  m_CorrespondingSourceObject: {fileID: 0}
  m_PrefabInstance: {fileID: 0}
  m_PrefabAsset: {fileID: 0}
  m_GameObject: {fileID: 1048729742}
  m_LocalRotation: {x: 0, y: 0.7071068, z: -0, w: -0.7071068}
  m_LocalPosition: {x: 200.6, y: -2.5, z: 144.9}
  m_LocalScale: {x: 1, y: 1, z: 1}
  m_Children: []
  m_Father: {fileID: 1976302605}
  m_RootOrder: 3
  m_LocalEulerAnglesHint: {x: 0, y: 270, z: 0}
--- !u!114 &1048729744
MonoBehaviour:
  m_ObjectHideFlags: 0
  m_CorrespondingSourceObject: {fileID: 0}
  m_PrefabInstance: {fileID: 0}
  m_PrefabAsset: {fileID: 0}
  m_GameObject: {fileID: 1048729742}
  m_Enabled: 1
  m_EditorHideFlags: 0
  m_Script: {fileID: 11500000, guid: 41f84591ce72545258ea98cb7518d8b9, type: 3}
  m_Name: 
  m_EditorClassIdentifier: 
--- !u!1 &1228356145
GameObject:
  m_ObjectHideFlags: 0
  m_CorrespondingSourceObject: {fileID: 0}
  m_PrefabInstance: {fileID: 0}
  m_PrefabAsset: {fileID: 0}
  serializedVersion: 6
  m_Component:
  - component: {fileID: 1228356146}
  - component: {fileID: 1228356147}
  m_Layer: 0
  m_Name: Spawn (10)
  m_TagString: Untagged
  m_Icon: {fileID: 5721338939258241955, guid: 0000000000000000d000000000000000, type: 0}
  m_NavMeshLayer: 0
  m_StaticEditorFlags: 0
  m_IsActive: 1
--- !u!4 &1228356146
Transform:
  m_ObjectHideFlags: 0
  m_CorrespondingSourceObject: {fileID: 0}
  m_PrefabInstance: {fileID: 0}
  m_PrefabAsset: {fileID: 0}
  m_GameObject: {fileID: 1228356145}
  m_LocalRotation: {x: -0, y: 0.8443798, z: -0, w: 0.535745}
  m_LocalPosition: {x: -181.3, y: -2.5, z: 193.2}
  m_LocalScale: {x: 1, y: 1, z: 1}
  m_Children: []
  m_Father: {fileID: 1976302605}
  m_RootOrder: 10
  m_LocalEulerAnglesHint: {x: 0, y: 115.211006, z: 0}
--- !u!114 &1228356147
MonoBehaviour:
  m_ObjectHideFlags: 0
  m_CorrespondingSourceObject: {fileID: 0}
  m_PrefabInstance: {fileID: 0}
  m_PrefabAsset: {fileID: 0}
  m_GameObject: {fileID: 1228356145}
  m_Enabled: 1
  m_EditorHideFlags: 0
  m_Script: {fileID: 11500000, guid: 41f84591ce72545258ea98cb7518d8b9, type: 3}
  m_Name: 
  m_EditorClassIdentifier: 
--- !u!1 &1279428804
GameObject:
  m_ObjectHideFlags: 0
  m_CorrespondingSourceObject: {fileID: 0}
  m_PrefabInstance: {fileID: 0}
  m_PrefabAsset: {fileID: 0}
  serializedVersion: 6
  m_Component:
  - component: {fileID: 1279428805}
  - component: {fileID: 1279428806}
  m_Layer: 0
  m_Name: Spawn (4)
  m_TagString: Untagged
  m_Icon: {fileID: 5721338939258241955, guid: 0000000000000000d000000000000000, type: 0}
  m_NavMeshLayer: 0
  m_StaticEditorFlags: 0
  m_IsActive: 1
--- !u!4 &1279428805
Transform:
  m_ObjectHideFlags: 0
  m_CorrespondingSourceObject: {fileID: 0}
  m_PrefabInstance: {fileID: 0}
  m_PrefabAsset: {fileID: 0}
  m_GameObject: {fileID: 1279428804}
  m_LocalRotation: {x: 0, y: 0.7071068, z: -0, w: -0.7071068}
  m_LocalPosition: {x: 157.1, y: -2.5, z: 10.6}
  m_LocalScale: {x: 1, y: 1, z: 1}
  m_Children: []
  m_Father: {fileID: 1976302605}
  m_RootOrder: 4
  m_LocalEulerAnglesHint: {x: 0, y: 270, z: 0}
--- !u!114 &1279428806
MonoBehaviour:
  m_ObjectHideFlags: 0
  m_CorrespondingSourceObject: {fileID: 0}
  m_PrefabInstance: {fileID: 0}
  m_PrefabAsset: {fileID: 0}
  m_GameObject: {fileID: 1279428804}
  m_Enabled: 1
  m_EditorHideFlags: 0
  m_Script: {fileID: 11500000, guid: 41f84591ce72545258ea98cb7518d8b9, type: 3}
  m_Name: 
  m_EditorClassIdentifier: 
--- !u!1 &1358033109
GameObject:
  m_ObjectHideFlags: 0
  m_CorrespondingSourceObject: {fileID: 0}
  m_PrefabInstance: {fileID: 0}
  m_PrefabAsset: {fileID: 0}
  serializedVersion: 6
  m_Component:
  - component: {fileID: 1358033110}
  - component: {fileID: 1358033111}
  m_Layer: 0
  m_Name: Spawn (9)
  m_TagString: Untagged
  m_Icon: {fileID: 5721338939258241955, guid: 0000000000000000d000000000000000, type: 0}
  m_NavMeshLayer: 0
  m_StaticEditorFlags: 0
  m_IsActive: 1
--- !u!4 &1358033110
Transform:
  m_ObjectHideFlags: 0
  m_CorrespondingSourceObject: {fileID: 0}
  m_PrefabInstance: {fileID: 0}
  m_PrefabAsset: {fileID: 0}
  m_GameObject: {fileID: 1358033109}
  m_LocalRotation: {x: 0, y: 0.7071068, z: 0, w: 0.7071068}
  m_LocalPosition: {x: -192.8, y: -2.5, z: 53.9}
  m_LocalScale: {x: 1, y: 1, z: 1}
  m_Children: []
  m_Father: {fileID: 1976302605}
  m_RootOrder: 9
  m_LocalEulerAnglesHint: {x: 0, y: 90, z: 0}
--- !u!114 &1358033111
MonoBehaviour:
  m_ObjectHideFlags: 0
  m_CorrespondingSourceObject: {fileID: 0}
  m_PrefabInstance: {fileID: 0}
  m_PrefabAsset: {fileID: 0}
  m_GameObject: {fileID: 1358033109}
  m_Enabled: 1
  m_EditorHideFlags: 0
  m_Script: {fileID: 11500000, guid: 41f84591ce72545258ea98cb7518d8b9, type: 3}
  m_Name: 
  m_EditorClassIdentifier: 
--- !u!1 &1458789072
GameObject:
  m_ObjectHideFlags: 0
  m_CorrespondingSourceObject: {fileID: 0}
  m_PrefabInstance: {fileID: 0}
  m_PrefabAsset: {fileID: 0}
  serializedVersion: 6
  m_Component:
  - component: {fileID: 1458789073}
  - component: {fileID: 1458789074}
  m_Layer: 0
  m_Name: Spawn
  m_TagString: Untagged
  m_Icon: {fileID: 5721338939258241955, guid: 0000000000000000d000000000000000, type: 0}
  m_NavMeshLayer: 0
  m_StaticEditorFlags: 0
  m_IsActive: 1
--- !u!4 &1458789073
Transform:
  m_ObjectHideFlags: 0
  m_CorrespondingSourceObject: {fileID: 0}
  m_PrefabInstance: {fileID: 0}
  m_PrefabAsset: {fileID: 0}
  m_GameObject: {fileID: 1458789072}
  m_LocalRotation: {x: 0, y: 1, z: 0, w: 0}
  m_LocalPosition: {x: -42.7, y: -2.5, z: 209.9}
  m_LocalScale: {x: 1, y: 1, z: 1}
  m_Children: []
  m_Father: {fileID: 1976302605}
  m_RootOrder: 0
  m_LocalEulerAnglesHint: {x: 0, y: 180, z: 0}
--- !u!114 &1458789074
MonoBehaviour:
  m_ObjectHideFlags: 0
  m_CorrespondingSourceObject: {fileID: 0}
  m_PrefabInstance: {fileID: 0}
  m_PrefabAsset: {fileID: 0}
  m_GameObject: {fileID: 1458789072}
  m_Enabled: 1
  m_EditorHideFlags: 0
  m_Script: {fileID: 11500000, guid: 41f84591ce72545258ea98cb7518d8b9, type: 3}
  m_Name: 
  m_EditorClassIdentifier: 
--- !u!1 &1569903071
GameObject:
  m_ObjectHideFlags: 0
  m_CorrespondingSourceObject: {fileID: 0}
  m_PrefabInstance: {fileID: 0}
  m_PrefabAsset: {fileID: 0}
  serializedVersion: 6
  m_Component:
  - component: {fileID: 1569903072}
  - component: {fileID: 1569903073}
  m_Layer: 0
  m_Name: Spawn (7)
  m_TagString: Untagged
  m_Icon: {fileID: 5721338939258241955, guid: 0000000000000000d000000000000000, type: 0}
  m_NavMeshLayer: 0
  m_StaticEditorFlags: 0
  m_IsActive: 1
--- !u!4 &1569903072
Transform:
  m_ObjectHideFlags: 0
  m_CorrespondingSourceObject: {fileID: 0}
  m_PrefabInstance: {fileID: 0}
  m_PrefabAsset: {fileID: 0}
  m_GameObject: {fileID: 1569903071}
  m_LocalRotation: {x: 0, y: 0, z: 0, w: 1}
  m_LocalPosition: {x: -192.8, y: -2.5, z: -201.1}
  m_LocalScale: {x: 1, y: 1, z: 1}
  m_Children: []
  m_Father: {fileID: 1976302605}
  m_RootOrder: 7
  m_LocalEulerAnglesHint: {x: 0, y: 0, z: 0}
--- !u!114 &1569903073
MonoBehaviour:
  m_ObjectHideFlags: 0
  m_CorrespondingSourceObject: {fileID: 0}
  m_PrefabInstance: {fileID: 0}
  m_PrefabAsset: {fileID: 0}
  m_GameObject: {fileID: 1569903071}
  m_Enabled: 1
  m_EditorHideFlags: 0
  m_Script: {fileID: 11500000, guid: 41f84591ce72545258ea98cb7518d8b9, type: 3}
  m_Name: 
  m_EditorClassIdentifier: 
--- !u!1001 &1580399125
PrefabInstance:
  m_ObjectHideFlags: 0
  serializedVersion: 2
  m_Modification:
    m_TransformParent: {fileID: 0}
    m_Modifications:
    - target: {fileID: 1000014026325708, guid: 9f9d0db77510f409bac76d2d98e0e09f, type: 3}
      propertyPath: m_Name
      value: HUDCanvas
      objectReference: {fileID: 0}
    - target: {fileID: 1000014026325708, guid: 9f9d0db77510f409bac76d2d98e0e09f, type: 3}
      propertyPath: m_IsActive
      value: 0
      objectReference: {fileID: 0}
    - target: {fileID: 224000012511458468, guid: 9f9d0db77510f409bac76d2d98e0e09f,
        type: 3}
      propertyPath: m_LocalPosition.x
      value: 0
      objectReference: {fileID: 0}
    - target: {fileID: 224000012511458468, guid: 9f9d0db77510f409bac76d2d98e0e09f,
        type: 3}
      propertyPath: m_LocalPosition.y
      value: 0
      objectReference: {fileID: 0}
    - target: {fileID: 224000012511458468, guid: 9f9d0db77510f409bac76d2d98e0e09f,
        type: 3}
      propertyPath: m_LocalPosition.z
      value: 0
      objectReference: {fileID: 0}
    - target: {fileID: 224000012511458468, guid: 9f9d0db77510f409bac76d2d98e0e09f,
        type: 3}
      propertyPath: m_LocalRotation.x
      value: 0
      objectReference: {fileID: 0}
    - target: {fileID: 224000012511458468, guid: 9f9d0db77510f409bac76d2d98e0e09f,
        type: 3}
      propertyPath: m_LocalRotation.y
      value: 0
      objectReference: {fileID: 0}
    - target: {fileID: 224000012511458468, guid: 9f9d0db77510f409bac76d2d98e0e09f,
        type: 3}
      propertyPath: m_LocalRotation.z
      value: 0
      objectReference: {fileID: 0}
    - target: {fileID: 224000012511458468, guid: 9f9d0db77510f409bac76d2d98e0e09f,
        type: 3}
      propertyPath: m_LocalRotation.w
      value: 1
      objectReference: {fileID: 0}
    - target: {fileID: 224000012511458468, guid: 9f9d0db77510f409bac76d2d98e0e09f,
        type: 3}
      propertyPath: m_RootOrder
      value: 3
      objectReference: {fileID: 0}
    - target: {fileID: 224000012511458468, guid: 9f9d0db77510f409bac76d2d98e0e09f,
        type: 3}
      propertyPath: m_LocalEulerAnglesHint.x
      value: 0
      objectReference: {fileID: 0}
    - target: {fileID: 224000012511458468, guid: 9f9d0db77510f409bac76d2d98e0e09f,
        type: 3}
      propertyPath: m_LocalEulerAnglesHint.y
      value: 0
      objectReference: {fileID: 0}
    - target: {fileID: 224000012511458468, guid: 9f9d0db77510f409bac76d2d98e0e09f,
        type: 3}
      propertyPath: m_LocalEulerAnglesHint.z
      value: 0
      objectReference: {fileID: 0}
    - target: {fileID: 224000012511458468, guid: 9f9d0db77510f409bac76d2d98e0e09f,
        type: 3}
      propertyPath: m_AnchoredPosition.x
      value: 0
      objectReference: {fileID: 0}
    - target: {fileID: 224000012511458468, guid: 9f9d0db77510f409bac76d2d98e0e09f,
        type: 3}
      propertyPath: m_AnchoredPosition.y
      value: 0
      objectReference: {fileID: 0}
    - target: {fileID: 224000012511458468, guid: 9f9d0db77510f409bac76d2d98e0e09f,
        type: 3}
      propertyPath: m_SizeDelta.x
      value: 0
      objectReference: {fileID: 0}
    - target: {fileID: 224000012511458468, guid: 9f9d0db77510f409bac76d2d98e0e09f,
        type: 3}
      propertyPath: m_SizeDelta.y
      value: 0
      objectReference: {fileID: 0}
    - target: {fileID: 224000012511458468, guid: 9f9d0db77510f409bac76d2d98e0e09f,
        type: 3}
      propertyPath: m_AnchorMin.x
      value: 0
      objectReference: {fileID: 0}
    - target: {fileID: 224000012511458468, guid: 9f9d0db77510f409bac76d2d98e0e09f,
        type: 3}
      propertyPath: m_AnchorMin.y
      value: 0
      objectReference: {fileID: 0}
    - target: {fileID: 224000012511458468, guid: 9f9d0db77510f409bac76d2d98e0e09f,
        type: 3}
      propertyPath: m_AnchorMax.x
      value: 0
      objectReference: {fileID: 0}
    - target: {fileID: 224000012511458468, guid: 9f9d0db77510f409bac76d2d98e0e09f,
        type: 3}
      propertyPath: m_AnchorMax.y
      value: 0
      objectReference: {fileID: 0}
    - target: {fileID: 224000012511458468, guid: 9f9d0db77510f409bac76d2d98e0e09f,
        type: 3}
      propertyPath: m_Pivot.x
      value: 0
      objectReference: {fileID: 0}
    - target: {fileID: 224000012511458468, guid: 9f9d0db77510f409bac76d2d98e0e09f,
        type: 3}
      propertyPath: m_Pivot.y
      value: 0
      objectReference: {fileID: 0}
    - target: {fileID: 6903787973538838769, guid: 9f9d0db77510f409bac76d2d98e0e09f,
        type: 3}
      propertyPath: m_IsActive
      value: 1
      objectReference: {fileID: 0}
    - target: {fileID: 1266088234692692233, guid: 9f9d0db77510f409bac76d2d98e0e09f,
        type: 3}
      propertyPath: m_AnchoredPosition.x
      value: 0
      objectReference: {fileID: 0}
    - target: {fileID: 1266088234692692233, guid: 9f9d0db77510f409bac76d2d98e0e09f,
        type: 3}
      propertyPath: m_AnchoredPosition.y
      value: 0
      objectReference: {fileID: 0}
    - target: {fileID: 1724343820181215166, guid: 9f9d0db77510f409bac76d2d98e0e09f,
        type: 3}
      propertyPath: m_AnchoredPosition.y
      value: 1.6201172
      objectReference: {fileID: 0}
    - target: {fileID: 2295613507406913257, guid: 9f9d0db77510f409bac76d2d98e0e09f,
        type: 3}
      propertyPath: m_IsActive
      value: 0
      objectReference: {fileID: 0}
    - target: {fileID: 5457719573056783167, guid: 9f9d0db77510f409bac76d2d98e0e09f,
        type: 3}
      propertyPath: m_AnchoredPosition.y
      value: 0
      objectReference: {fileID: 0}
    - target: {fileID: 5457719573056783167, guid: 9f9d0db77510f409bac76d2d98e0e09f,
        type: 3}
      propertyPath: m_AnchoredPosition.x
      value: 0
      objectReference: {fileID: 0}
    - target: {fileID: 6415407344650946265, guid: 9f9d0db77510f409bac76d2d98e0e09f,
        type: 3}
      propertyPath: m_AnchoredPosition.y
      value: -0.000015258789
      objectReference: {fileID: 0}
    - target: {fileID: 6415407344650946265, guid: 9f9d0db77510f409bac76d2d98e0e09f,
        type: 3}
      propertyPath: m_AnchoredPosition.x
      value: 17.468994
      objectReference: {fileID: 0}
    - target: {fileID: 7127291974937669552, guid: 9f9d0db77510f409bac76d2d98e0e09f,
        type: 3}
      propertyPath: m_AnchoredPosition.y
      value: 0
      objectReference: {fileID: 0}
    - target: {fileID: 7127291974937669552, guid: 9f9d0db77510f409bac76d2d98e0e09f,
        type: 3}
      propertyPath: m_AnchoredPosition.x
      value: 17.468994
      objectReference: {fileID: 0}
    - target: {fileID: 1482962561523348702, guid: 9f9d0db77510f409bac76d2d98e0e09f,
        type: 3}
      propertyPath: m_AnchoredPosition.y
      value: 0
      objectReference: {fileID: 0}
    - target: {fileID: 1482962561523348702, guid: 9f9d0db77510f409bac76d2d98e0e09f,
        type: 3}
      propertyPath: m_AnchoredPosition.x
      value: 17.124008
      objectReference: {fileID: 0}
    - target: {fileID: 2206071895059838188, guid: 9f9d0db77510f409bac76d2d98e0e09f,
        type: 3}
      propertyPath: m_IsActive
      value: 0
      objectReference: {fileID: 0}
    - target: {fileID: 2918239549885278578, guid: 9f9d0db77510f409bac76d2d98e0e09f,
        type: 3}
      propertyPath: m_AnchoredPosition.y
      value: -0.69000244
      objectReference: {fileID: 0}
    - target: {fileID: 2237722391876635223, guid: 9f9d0db77510f409bac76d2d98e0e09f,
        type: 3}
      propertyPath: m_AnchoredPosition.y
      value: 0.6100006
      objectReference: {fileID: 0}
    - target: {fileID: 7123042310713140795, guid: 9f9d0db77510f409bac76d2d98e0e09f,
        type: 3}
      propertyPath: m_AnchoredPosition.x
      value: -0.41999817
      objectReference: {fileID: 0}
    - target: {fileID: 114000012276560038, guid: 9f9d0db77510f409bac76d2d98e0e09f,
        type: 3}
      propertyPath: m_UiScaleMode
      value: 1
      objectReference: {fileID: 0}
    - target: {fileID: 114000012276560038, guid: 9f9d0db77510f409bac76d2d98e0e09f,
        type: 3}
      propertyPath: m_MatchWidthOrHeight
      value: 0.5
      objectReference: {fileID: 0}
    - target: {fileID: 1000012351695642, guid: 9f9d0db77510f409bac76d2d98e0e09f, type: 3}
      propertyPath: m_IsActive
      value: 1
      objectReference: {fileID: 0}
    - target: {fileID: 224000010840757456, guid: 9f9d0db77510f409bac76d2d98e0e09f,
        type: 3}
      propertyPath: m_SizeDelta.x
      value: 105.83
      objectReference: {fileID: 0}
    - target: {fileID: 224000010840757456, guid: 9f9d0db77510f409bac76d2d98e0e09f,
        type: 3}
      propertyPath: m_SizeDelta.y
      value: 105.83
      objectReference: {fileID: 0}
    - target: {fileID: 224000013093950400, guid: 9f9d0db77510f409bac76d2d98e0e09f,
        type: 3}
      propertyPath: m_SizeDelta.x
      value: 82.77
      objectReference: {fileID: 0}
    - target: {fileID: 224000013093950400, guid: 9f9d0db77510f409bac76d2d98e0e09f,
        type: 3}
      propertyPath: m_SizeDelta.y
      value: 103.48
      objectReference: {fileID: 0}
    - target: {fileID: 224000010897936542, guid: 9f9d0db77510f409bac76d2d98e0e09f,
        type: 3}
      propertyPath: m_AnchoredPosition.x
      value: -0.000045776367
      objectReference: {fileID: 0}
    - target: {fileID: 224000010897936542, guid: 9f9d0db77510f409bac76d2d98e0e09f,
        type: 3}
      propertyPath: m_AnchoredPosition.y
      value: -4.5999985
      objectReference: {fileID: 0}
    - target: {fileID: 224000010897936542, guid: 9f9d0db77510f409bac76d2d98e0e09f,
        type: 3}
      propertyPath: m_SizeDelta.x
      value: -34.59
      objectReference: {fileID: 0}
    - target: {fileID: 224000010897936542, guid: 9f9d0db77510f409bac76d2d98e0e09f,
        type: 3}
      propertyPath: m_SizeDelta.y
      value: -33.89
      objectReference: {fileID: 0}
    - target: {fileID: 1000012144172354, guid: 9f9d0db77510f409bac76d2d98e0e09f, type: 3}
      propertyPath: m_IsActive
      value: 1
      objectReference: {fileID: 0}
    - target: {fileID: 6296671104919339562, guid: 9f9d0db77510f409bac76d2d98e0e09f,
        type: 3}
      propertyPath: m_FontData.m_FontSize
      value: 63
      objectReference: {fileID: 0}
    - target: {fileID: 6296671104919339562, guid: 9f9d0db77510f409bac76d2d98e0e09f,
        type: 3}
      propertyPath: m_FontData.m_MaxSize
      value: 95
      objectReference: {fileID: 0}
    - target: {fileID: 4335697126284768368, guid: 9f9d0db77510f409bac76d2d98e0e09f,
        type: 3}
      propertyPath: m_FontData.m_FontSize
      value: 34
      objectReference: {fileID: 0}
    - target: {fileID: 4335697126284768368, guid: 9f9d0db77510f409bac76d2d98e0e09f,
        type: 3}
      propertyPath: m_FontData.m_MaxSize
      value: 206
      objectReference: {fileID: 0}
    - target: {fileID: 4335697126284768368, guid: 9f9d0db77510f409bac76d2d98e0e09f,
        type: 3}
      propertyPath: m_FontData.m_VerticalOverflow
      value: 1
      objectReference: {fileID: 0}
    - target: {fileID: 6230247257827608730, guid: 9f9d0db77510f409bac76d2d98e0e09f,
        type: 3}
      propertyPath: m_FontData.m_FontSize
      value: 56
      objectReference: {fileID: 0}
    - target: {fileID: 6230247257827608730, guid: 9f9d0db77510f409bac76d2d98e0e09f,
        type: 3}
      propertyPath: m_FontData.m_MaxSize
      value: 56
      objectReference: {fileID: 0}
    - target: {fileID: 6230247257827608730, guid: 9f9d0db77510f409bac76d2d98e0e09f,
        type: 3}
      propertyPath: m_FontData.m_VerticalOverflow
      value: 1
      objectReference: {fileID: 0}
    - target: {fileID: 6230247257827608730, guid: 9f9d0db77510f409bac76d2d98e0e09f,
        type: 3}
      propertyPath: m_FontData.m_BestFit
      value: 0
      objectReference: {fileID: 0}
    - target: {fileID: 1809620748, guid: 9f9d0db77510f409bac76d2d98e0e09f, type: 3}
      propertyPath: m_RootOrder
      value: 9
      objectReference: {fileID: 0}
    - target: {fileID: 1809620750, guid: 9f9d0db77510f409bac76d2d98e0e09f, type: 3}
      propertyPath: m_SceneId
      value: 2031442176
      objectReference: {fileID: 0}
    - target: {fileID: 1000014131905012, guid: 9f9d0db77510f409bac76d2d98e0e09f, type: 3}
      propertyPath: m_IsActive
      value: 1
      objectReference: {fileID: 0}
    m_RemovedComponents: []
  m_SourcePrefab: {fileID: 100100000, guid: 9f9d0db77510f409bac76d2d98e0e09f, type: 3}
--- !u!1001 &1806803749
PrefabInstance:
  m_ObjectHideFlags: 0
  serializedVersion: 2
  m_Modification:
    m_TransformParent: {fileID: 0}
    m_Modifications:
    - target: {fileID: 1699790456697960, guid: 41d2d2b7c43416948ad12785b670ddbf, type: 3}
      propertyPath: m_Name
      value: TeleportRig
      objectReference: {fileID: 0}
    - target: {fileID: 4165376622330400, guid: 41d2d2b7c43416948ad12785b670ddbf, type: 3}
      propertyPath: m_LocalPosition.x
      value: 0
      objectReference: {fileID: 0}
    - target: {fileID: 4165376622330400, guid: 41d2d2b7c43416948ad12785b670ddbf, type: 3}
      propertyPath: m_LocalPosition.y
      value: 1
      objectReference: {fileID: 0}
    - target: {fileID: 4165376622330400, guid: 41d2d2b7c43416948ad12785b670ddbf, type: 3}
      propertyPath: m_LocalPosition.z
      value: 0
      objectReference: {fileID: 0}
    - target: {fileID: 4165376622330400, guid: 41d2d2b7c43416948ad12785b670ddbf, type: 3}
      propertyPath: m_LocalRotation.x
      value: 0
      objectReference: {fileID: 0}
    - target: {fileID: 4165376622330400, guid: 41d2d2b7c43416948ad12785b670ddbf, type: 3}
      propertyPath: m_LocalRotation.y
      value: 0
      objectReference: {fileID: 0}
    - target: {fileID: 4165376622330400, guid: 41d2d2b7c43416948ad12785b670ddbf, type: 3}
      propertyPath: m_LocalRotation.z
      value: 0
      objectReference: {fileID: 0}
    - target: {fileID: 4165376622330400, guid: 41d2d2b7c43416948ad12785b670ddbf, type: 3}
      propertyPath: m_LocalRotation.w
      value: 1
      objectReference: {fileID: 0}
    - target: {fileID: 4165376622330400, guid: 41d2d2b7c43416948ad12785b670ddbf, type: 3}
      propertyPath: m_RootOrder
      value: 7
      objectReference: {fileID: 0}
    - target: {fileID: 4165376622330400, guid: 41d2d2b7c43416948ad12785b670ddbf, type: 3}
      propertyPath: m_LocalEulerAnglesHint.x
      value: 0
      objectReference: {fileID: 0}
    - target: {fileID: 4165376622330400, guid: 41d2d2b7c43416948ad12785b670ddbf, type: 3}
      propertyPath: m_LocalEulerAnglesHint.y
      value: 0
      objectReference: {fileID: 0}
    - target: {fileID: 4165376622330400, guid: 41d2d2b7c43416948ad12785b670ddbf, type: 3}
      propertyPath: m_LocalEulerAnglesHint.z
      value: 0
      objectReference: {fileID: 0}
    m_RemovedComponents: []
  m_SourcePrefab: {fileID: 100100000, guid: 41d2d2b7c43416948ad12785b670ddbf, type: 3}
--- !u!1 &1976302604
GameObject:
  m_ObjectHideFlags: 0
  m_CorrespondingSourceObject: {fileID: 0}
  m_PrefabInstance: {fileID: 0}
  m_PrefabAsset: {fileID: 0}
  serializedVersion: 6
  m_Component:
  - component: {fileID: 1976302605}
  m_Layer: 0
  m_Name: SpawnPool
  m_TagString: Untagged
  m_Icon: {fileID: 0}
  m_NavMeshLayer: 0
  m_StaticEditorFlags: 0
  m_IsActive: 1
--- !u!4 &1976302605
Transform:
  m_ObjectHideFlags: 0
  m_CorrespondingSourceObject: {fileID: 0}
  m_PrefabInstance: {fileID: 0}
  m_PrefabAsset: {fileID: 0}
  m_GameObject: {fileID: 1976302604}
  m_LocalRotation: {x: 0, y: 0, z: 0, w: 1}
  m_LocalPosition: {x: 0, y: 0.5, z: 0}
  m_LocalScale: {x: 0.19584116, y: 0.19584116, z: 0.19584116}
  m_Children:
  - {fileID: 1458789073}
  - {fileID: 465402402}
  - {fileID: 848333022}
  - {fileID: 1048729743}
  - {fileID: 1279428805}
  - {fileID: 18936439}
  - {fileID: 526926305}
  - {fileID: 1569903072}
  - {fileID: 2054340945}
  - {fileID: 1358033110}
  - {fileID: 1228356146}
  m_Father: {fileID: 0}
  m_RootOrder: 6
  m_LocalEulerAnglesHint: {x: 0, y: 0, z: 0}
--- !u!1 &2054208274
GameObject:
  m_ObjectHideFlags: 0
  m_CorrespondingSourceObject: {fileID: 0}
  m_PrefabInstance: {fileID: 0}
  m_PrefabAsset: {fileID: 0}
  serializedVersion: 6
  m_Component:
  - component: {fileID: 2054208276}
  - component: {fileID: 2054208275}
  m_Layer: 0
  m_Name: Directional light
  m_TagString: Untagged
  m_Icon: {fileID: 0}
  m_NavMeshLayer: 0
  m_StaticEditorFlags: 0
  m_IsActive: 1
--- !u!108 &2054208275
Light:
  m_ObjectHideFlags: 0
  m_CorrespondingSourceObject: {fileID: 0}
  m_PrefabInstance: {fileID: 0}
  m_PrefabAsset: {fileID: 0}
  m_GameObject: {fileID: 2054208274}
  m_Enabled: 1
  serializedVersion: 8
  m_Type: 1
  m_Color: {r: 1, g: 1, b: 1, a: 1}
  m_Intensity: 1
  m_Range: 10
  m_SpotAngle: 30
  m_CookieSize: 10
  m_Shadows:
    m_Type: 2
    m_Resolution: -1
    m_CustomResolution: -1
    m_Strength: 1
    m_Bias: 0.05
    m_NormalBias: 0.4
    m_NearPlane: 0.2
  m_Cookie: {fileID: 0}
  m_DrawHalo: 0
  m_Flare: {fileID: 0}
  m_RenderMode: 0
  m_CullingMask:
    serializedVersion: 2
    m_Bits: 4294967295
  m_Lightmapping: 4
  m_LightShadowCasterMode: 0
  m_AreaSize: {x: 1, y: 1}
  m_BounceIntensity: 1
  m_ColorTemperature: 6570
  m_UseColorTemperature: 0
  m_ShadowRadius: 0
  m_ShadowAngle: 0
--- !u!4 &2054208276
Transform:
  m_ObjectHideFlags: 0
  m_CorrespondingSourceObject: {fileID: 0}
  m_PrefabInstance: {fileID: 0}
  m_PrefabAsset: {fileID: 0}
  m_GameObject: {fileID: 2054208274}
  m_LocalRotation: {x: 0.10938167, y: 0.8754261, z: -0.40821788, w: 0.23456976}
  m_LocalPosition: {x: 0, y: 10, z: 0}
  m_LocalScale: {x: 1, y: 1, z: 1}
  m_Children: []
  m_Father: {fileID: 0}
  m_RootOrder: 1
  m_LocalEulerAnglesHint: {x: 50, y: 150, z: 0}
--- !u!1 &2054340944
GameObject:
  m_ObjectHideFlags: 0
  m_CorrespondingSourceObject: {fileID: 0}
  m_PrefabInstance: {fileID: 0}
  m_PrefabAsset: {fileID: 0}
  serializedVersion: 6
  m_Component:
  - component: {fileID: 2054340945}
  - component: {fileID: 2054340946}
  m_Layer: 0
  m_Name: Spawn (8)
  m_TagString: Untagged
  m_Icon: {fileID: 5721338939258241955, guid: 0000000000000000d000000000000000, type: 0}
  m_NavMeshLayer: 0
  m_StaticEditorFlags: 0
  m_IsActive: 1
--- !u!4 &2054340945
Transform:
  m_ObjectHideFlags: 0
  m_CorrespondingSourceObject: {fileID: 0}
  m_PrefabInstance: {fileID: 0}
  m_PrefabAsset: {fileID: 0}
  m_GameObject: {fileID: 2054340944}
  m_LocalRotation: {x: -0, y: 0.6425331, z: -0, w: 0.7662579}
  m_LocalPosition: {x: -192.8, y: -2.5, z: -97.7}
  m_LocalScale: {x: 1, y: 1, z: 1}
  m_Children: []
  m_Father: {fileID: 1976302605}
  m_RootOrder: 8
  m_LocalEulerAnglesHint: {x: 0, y: 79.962006, z: 0}
--- !u!114 &2054340946
MonoBehaviour:
  m_ObjectHideFlags: 0
  m_CorrespondingSourceObject: {fileID: 0}
  m_PrefabInstance: {fileID: 0}
  m_PrefabAsset: {fileID: 0}
  m_GameObject: {fileID: 2054340944}
  m_Enabled: 1
  m_EditorHideFlags: 0
  m_Script: {fileID: 11500000, guid: 41f84591ce72545258ea98cb7518d8b9, type: 3}
  m_Name: 
  m_EditorClassIdentifier: 
