{
    "name": "Mirror",
    "references": [
        "Mirror.CompilerSymbols",
        "Ninja.WebSockets",
        "VivoxUnity"
    ],
    "includePlatforms": [],
    "excludePlatforms": [],
    "allowUnsafeCode": false,
    "overrideReferences": false,
    "precompiledReferences": [],
    "autoReferenced": true,
    "defineConstraints": [],
    "versionDefines": []
}